{
  "page": 1,
  "results": [
    {
      "id": 1,
      "name": "Halo",
      "overview": "Depicting an epic 26th-century conflict between humanity and an alien threat known as the Covenant, the series weaves deeply drawn personal stories with action, adventure and a richly imagined vision of the future.",
      "poster_path": "//nJUHX3XL1jMkk8honUZnUmudFb9.jpg"
    }
  ],
  "total_pages": 2,
  "total_results": 28
}